VAST Challenge 2025 - Mini-Challenge 3 – ISSS608-Liu Chih Yuan
…
cluster_tbl <- entity_graph %>% 
  activate(nodes) %>% 
  as_tibble() %>% 
  group_by(group) %>% 
  summarise(size        = n(),
            top_labels  = paste(head(label, 5), collapse = ", "),
            vessel_cnt  = sum(sub_type == "Vessel"),
            person_cnt  = sum(sub_type == "Person"),
            org_cnt     = sum(sub_type == "Organisation")) %>%
  arrange(desc(size))

cluster_tbl

# A tibble: 37 × 6
   group  size top_labels                          vessel_cnt person_cnt org_cnt
   <fct> <int> <chr>                                    <int>      <int>   <int>
 1 1        13 Sam, Kelly, The Lookout, Oceanus C…          6          3       0
 2 2        12 Nadia Conti, Elise, Davis, Rodrigu…          4          5       0
 3 3         6 Liam Thorne, The Intern, The Accou…          0          6       0
 4 4         4 Samantha Blake, Glitters Team, Sai…          1          1       0
 5 5         4 Mako, Osprey, Knowles, Haacklee Ha…          3          0       0
 6 6         2 Clepper Jensen, Miranda Jordan               0          2       0
 7 7         1 Sailor Shift                                 0          1       0
 8 8         1 Mariner's Dream                              1          0       0
 9 9         1 Recreational Fishing Boats                   0          0       0
10 10        1 Diving Tour Operators                        0          0       0
# ℹ 27 more rows
…
